{
	"info": {
		"_postman_id": "e21440b7-490e-48f8-95fd-a75871c54fcb",
		"name": "Jeomju",
		"description": "API Documentation of the Poomsae Scoring System by Leona Köck",
		"schema": "https://schema.getpostman.com/json/collection/v2.1.0/collection.json"
	},
	"item": [
		{
			"name": "Database Test",
			"item": [
				{
					"name": "Athletes",
					"item": [
						{
							"name": "Post Athlete",
							"request": {
								"method": "POST",
								"header": [
									{
										"key": "Content-Type",
										"value": "application/json",
										"type": "text"
									}
								],
								"body": {
									"mode": "raw",
									"raw": "{\n    \"name\": \"Leona Köck\",\n    \"dateOfBirth\": \"1999-02-25\",\n    \"graduation\": \"1. Dan\",\n    \"clubId\": 1\n}"
								},
								"url": {
									"raw": "http://localhost:8080/api/athletes",
									"protocol": "http",
									"host": [
										"localhost"
									],
									"port": "8080",
									"path": [
										"api",
										"athletes"
									]
								},
								"description": "The information needed is the name of the Athlete, his date of birth in the Datetime format (\"yyyy’-‘MM’-‘dd’T’HH’:’mm’:’ss.fffffffK\"), his graduation and the club he is belonging to."
							},
							"response": []
						},
						{
							"name": "Get All Athletes",
							"request": {
								"method": "GET",
								"header": [],
								"url": {
									"raw": "http://localhost:8080/api/athletes",
									"protocol": "http",
									"host": [
										"localhost"
									],
									"port": "8080",
									"path": [
										"api",
										"athletes"
									]
								},
								"description": "Retrieve all Athletes from the database."
							},
							"response": []
						},
						{
							"name": "Get Athlete by id",
							"request": {
								"method": "GET",
								"header": [],
								"url": {
									"raw": "http://localhost:8080/api/athletes/1",
									"protocol": "http",
									"host": [
										"localhost"
									],
									"port": "8080",
									"path": [
										"api",
										"athletes",
										"1"
									]
								},
								"description": "Retrieve an Athlete by a certain ID from the database"
							},
							"response": []
						},
						{
							"name": "Get Athlete by name",
							"request": {
								"method": "GET",
								"header": [],
								"url": {
									"raw": "http://localhost:8080/api/athletes/?name=L",
									"protocol": "http",
									"host": [
										"localhost"
									],
									"port": "8080",
									"path": [
										"api",
										"athletes",
										""
									],
									"query": [
										{
											"key": "name",
											"value": "L"
										}
									]
								},
								"description": "Retrieve an Athlete by a certain Name from the database"
							},
							"response": []
						},
						{
							"name": "Update athlete",
							"request": {
								"method": "PUT",
								"header": [
									{
										"key": "Content-Type",
										"value": "application/json",
										"type": "text"
									}
								],
								"body": {
									"mode": "raw",
									"raw": "{\n    \"name\": \"Leona Köck\",\n    \"dateOfBirth\": \"1999-02-25T00:00:00.000Z\",\n    \"graduation\": \"1. Dan\",\n    \"clubId\": 1\n}"
								},
								"url": {
									"raw": "http://localhost:8080/api/athletes/1",
									"protocol": "http",
									"host": [
										"localhost"
									],
									"port": "8080",
									"path": [
										"api",
										"athletes",
										"1"
									]
								},
								"description": "Update an existing Athlete from the database"
							},
							"response": []
						},
						{
							"name": "Delete by Id",
							"request": {
								"method": "DELETE",
								"header": [],
								"url": {
									"raw": "http://localhost:8080/api/athletes/1",
									"protocol": "http",
									"host": [
										"localhost"
									],
									"port": "8080",
									"path": [
										"api",
										"athletes",
										"1"
									]
								},
								"description": "Delete an Athlete with an given ID from the Database"
							},
							"response": []
						}
					],
					"description": "This are the Test-Requests for the Actions in the Athlete-Table.\nIn this Table are the Infos about the Athletes participating in the Event."
				},
				{
					"name": "Authentication_Test",
					"item": [
						{
							"name": "signup referee",
							"request": {
								"method": "POST",
								"header": [
									{
										"key": "Content-Type",
										"value": "application/json",
										"type": "text"
									}
								],
								"body": {
									"mode": "raw",
									"raw": "{\n    \"username\": \"koele\",\n    \"password\": \"12345678\",\n    \"role\": \"referee\"\n}"
								},
								"url": {
									"raw": "http://localhost:8080/api/auth/signup",
									"protocol": "http",
									"host": [
										"localhost"
									],
									"port": "8080",
									"path": [
										"api",
										"auth",
										"signup"
									]
								},
								"description": "This URL is used to signup a new refferee with a given password. The password is going to be encrypted."
							},
							"response": []
						},
						{
							"name": "Signin referee",
							"request": {
								"method": "POST",
								"header": [
									{
										"key": "Content-Type",
										"value": "application/json",
										"type": "text"
									}
								],
								"body": {
									"mode": "raw",
									"raw": "{\n    \"username\": \"koele\",\n    \"password\": \"12345678\"\n}"
								},
								"url": {
									"raw": "http://localhost:8080/api/auth/signin",
									"protocol": "http",
									"host": [
										"localhost"
									],
									"port": "8080",
									"path": [
										"api",
										"auth",
										"signin"
									]
								},
								"description": "Sign in a Referee in order to get the JWT to make other requests."
							},
							"response": []
						},
						{
							"name": "test referee login without token",
							"request": {
								"method": "GET",
								"header": [],
								"url": {
									"raw": "http://localhost:8080/api/test/referee",
									"protocol": "http",
									"host": [
										"localhost"
									],
									"port": "8080",
									"path": [
										"api",
										"test",
										"referee"
									]
								},
								"description": "Test the login"
							},
							"response": []
						},
						{
							"name": "test referee login with token",
							"request": {
								"method": "GET",
								"header": [
									{
										"key": "x-access-token",
										"value": "eyJhbGciOiJIUzI1NiIsInR5cCI6IkpXVCJ9.eyJpZCI6MSwiaWF0IjoxNjIwMjQwMjI0LCJleHAiOjE2MjAzMjY2MjR9.etbO5zOfWjdr-1OCxAAe-vyoOy2rGWTOLoe8KaxcZoU",
										"type": "text"
									}
								],
								"url": {
									"raw": "http://localhost:8080/api/test/referee",
									"protocol": "http",
									"host": [
										"localhost"
									],
									"port": "8080",
									"path": [
										"api",
										"test",
										"referee"
									]
								},
								"description": "Test the login; \nInsert an updated token in the body of the request in order to succeed."
							},
							"response": []
						}
					],
					"description": "This are the Test-Requests for Authentication and Authorization of the Referee-Table.\nIn this Table are Referee's name, the Password and the role."
				},
				{
					"name": "Categories",
					"item": [
						{
							"name": "Post Category",
							"request": {
								"method": "POST",
								"header": [
									{
										"key": "Content-Type",
										"value": "application/json",
										"type": "text"
									}
								],
								"body": {
									"mode": "raw",
									"raw": "{\n    \"category\": \"Junioren\",\n    \"disciplineId\": 1,\n    \"classId\": 1,\n    \"compositionId\": 1\n}"
								},
								"url": {
									"raw": "http://localhost:8080/api/categories",
									"protocol": "http",
									"host": [
										"localhost"
									],
									"port": "8080",
									"path": [
										"api",
										"categories"
									]
								},
								"description": "Post a new category, note that the foreign key of the tables class, discipline and composition must already exist in order to succeed.\nThe category name describes the age group the athlete is competing in."
							},
							"response": []
						},
						{
							"name": "Get All",
							"request": {
								"method": "GET",
								"header": [],
								"url": {
									"raw": "http://localhost:8080/api/categories",
									"protocol": "http",
									"host": [
										"localhost"
									],
									"port": "8080",
									"path": [
										"api",
										"categories"
									]
								},
								"description": "Retrieve all existing categories"
							},
							"response": []
						},
						{
							"name": "Get by id",
							"request": {
								"method": "GET",
								"header": [],
								"url": {
									"raw": "http://localhost:8080/api/categories/1",
									"protocol": "http",
									"host": [
										"localhost"
									],
									"port": "8080",
									"path": [
										"api",
										"categories",
										"1"
									]
								},
								"description": "Retrieve a certain category given by id"
							},
							"response": []
						},
						{
							"name": "Get by name",
							"request": {
								"method": "GET",
								"header": [],
								"url": {
									"raw": "http://localhost:8080/api/categories/?category=P",
									"protocol": "http",
									"host": [
										"localhost"
									],
									"port": "8080",
									"path": [
										"api",
										"categories",
										""
									],
									"query": [
										{
											"key": "category",
											"value": "P"
										}
									]
								},
								"description": "Retrieve a certain category given by name"
							},
							"response": []
						},
						{
							"name": "Update category",
							"request": {
								"method": "PUT",
								"header": [
									{
										"key": "Content-Type",
										"value": "application/json",
										"type": "text"
									}
								],
								"body": {
									"mode": "raw",
									"raw": "{\n    \"category\": \"Junioren\",\n    \"disciplineId\": 1,\n    \"classId\": 1,\n    \"compositionId\": 1\n}"
								},
								"url": {
									"raw": "http://localhost:8080/api/categories/1",
									"protocol": "http",
									"host": [
										"localhost"
									],
									"port": "8080",
									"path": [
										"api",
										"categories",
										"1"
									]
								},
								"description": "Update a certain category by id"
							},
							"response": []
						},
						{
							"name": "Delete by Id",
							"request": {
								"method": "DELETE",
								"header": [],
								"url": {
									"raw": "http://localhost:8080/api/categories/1",
									"protocol": "http",
									"host": [
										"localhost"
									],
									"port": "8080",
									"path": [
										"api",
										"categories",
										"1"
									]
								},
								"description": "Delete a certain category by id"
							},
							"response": []
						},
						{
							"name": "Delete all",
							"request": {
								"method": "DELETE",
								"header": [],
								"url": {
									"raw": "http://localhost:8080/api/categories",
									"protocol": "http",
									"host": [
										"localhost"
									],
									"port": "8080",
									"path": [
										"api",
										"categories"
									]
								},
								"description": "Delete all existing categories"
							},
							"response": []
						}
					],
					"description": "These requests are about the defining the different categories of an event which the athletes can compete in. A Category consists of the name itself, a Class, a Discipline and a Composition."
				},
				{
					"name": "Classes",
					"item": [
						{
							"name": "Post",
							"request": {
								"method": "POST",
								"header": [
									{
										"key": "Content-Type",
										"value": "application/json",
										"type": "text"
									}
								],
								"body": {
									"mode": "raw",
									"raw": "{\n    \"classname\": \"LK 1\"\n}"
								},
								"url": {
									"raw": "http://localhost:8080/api/classes",
									"protocol": "http",
									"host": [
										"localhost"
									],
									"port": "8080",
									"path": [
										"api",
										"classes"
									]
								},
								"description": "Save a new class"
							},
							"response": []
						},
						{
							"name": "Get All",
							"request": {
								"method": "GET",
								"header": [],
								"url": {
									"raw": "http://localhost:8080/api/classes",
									"protocol": "http",
									"host": [
										"localhost"
									],
									"port": "8080",
									"path": [
										"api",
										"classes"
									]
								},
								"description": "Retrieve all classes"
							},
							"response": []
						},
						{
							"name": "Get by Id",
							"request": {
								"method": "GET",
								"header": [],
								"url": {
									"raw": "http://localhost:8080/api/classes/1",
									"protocol": "http",
									"host": [
										"localhost"
									],
									"port": "8080",
									"path": [
										"api",
										"classes",
										"1"
									]
								},
								"description": "Retrieve a class by a given id"
							},
							"response": []
						},
						{
							"name": "Get by classname",
							"request": {
								"method": "GET",
								"header": [],
								"url": {
									"raw": "http://localhost:8080/api/classes/?classname=S",
									"protocol": "http",
									"host": [
										"localhost"
									],
									"port": "8080",
									"path": [
										"api",
										"classes",
										""
									],
									"query": [
										{
											"key": "classname",
											"value": "S"
										}
									]
								},
								"description": "Retrieve a class by a given name"
							},
							"response": []
						},
						{
							"name": "Update",
							"request": {
								"method": "PUT",
								"header": [
									{
										"key": "Content-Type",
										"value": "application/json",
										"type": "text"
									}
								],
								"body": {
									"mode": "raw",
									"raw": "{\n    \"class\": \"LK 2\"\n}"
								},
								"url": {
									"raw": "http://localhost:8080/api/classes/1",
									"protocol": "http",
									"host": [
										"localhost"
									],
									"port": "8080",
									"path": [
										"api",
										"classes",
										"1"
									]
								},
								"description": "Update a class by a given id"
							},
							"response": []
						},
						{
							"name": "Delete by Id",
							"request": {
								"method": "DELETE",
								"header": [],
								"url": {
									"raw": "http://localhost:8080/api/classes/1",
									"protocol": "http",
									"host": [
										"localhost"
									],
									"port": "8080",
									"path": [
										"api",
										"classes",
										"1"
									]
								},
								"description": "Delte a class by a given id"
							},
							"response": []
						},
						{
							"name": "Delete all",
							"request": {
								"method": "DELETE",
								"header": [],
								"url": {
									"raw": "http://localhost:8080/api/classes",
									"protocol": "http",
									"host": [
										"localhost"
									],
									"port": "8080",
									"path": [
										"api",
										"classes"
									]
								},
								"description": "Delete all classes "
							},
							"response": []
						}
					],
					"description": "This Table is all about the performance classes the categories consist of. These classes describe the athlete's graduation."
				},
				{
					"name": "Clubs",
					"item": [
						{
							"name": "Post club",
							"request": {
								"method": "POST",
								"header": [
									{
										"key": "Content-Type",
										"value": "application/json",
										"type": "text"
									}
								],
								"body": {
									"mode": "raw",
									"raw": "{\n    \"clubname\": \"Taekwondo Scorpions\"\n}"
								},
								"url": {
									"raw": "http://localhost:8080/api/clubs",
									"protocol": "http",
									"host": [
										"localhost"
									],
									"port": "8080",
									"path": [
										"api",
										"clubs"
									]
								},
								"description": "Save a new club"
							},
							"response": []
						},
						{
							"name": "Get All",
							"request": {
								"method": "GET",
								"header": [],
								"url": {
									"raw": "http://localhost:8080/api/clubs",
									"protocol": "http",
									"host": [
										"localhost"
									],
									"port": "8080",
									"path": [
										"api",
										"clubs"
									]
								},
								"description": "Retrieve all clubs"
							},
							"response": []
						},
						{
							"name": "Get by Id",
							"request": {
								"method": "GET",
								"header": [],
								"url": {
									"raw": "http://localhost:8080/api/clubs/1",
									"protocol": "http",
									"host": [
										"localhost"
									],
									"port": "8080",
									"path": [
										"api",
										"clubs",
										"1"
									]
								},
								"description": "Retrieve a club by an id"
							},
							"response": []
						},
						{
							"name": "Get by clubname",
							"request": {
								"method": "GET",
								"header": [],
								"url": {
									"raw": "http://localhost:8080/api/clubs/?clubname=Taekwondo",
									"protocol": "http",
									"host": [
										"localhost"
									],
									"port": "8080",
									"path": [
										"api",
										"clubs",
										""
									],
									"query": [
										{
											"key": "clubname",
											"value": "Taekwondo"
										}
									]
								},
								"description": "Retrieve a club by a given name"
							},
							"response": []
						},
						{
							"name": "Update Club",
							"request": {
								"method": "PUT",
								"header": [
									{
										"key": "Content-Type",
										"value": "application/json",
										"type": "text"
									}
								],
								"body": {
									"mode": "raw",
									"raw": "{\n    \"clubname\": \"TKD Nenzing\"\n}"
								},
								"url": {
									"raw": "http://localhost:8080/api/clubs/1",
									"protocol": "http",
									"host": [
										"localhost"
									],
									"port": "8080",
									"path": [
										"api",
										"clubs",
										"1"
									]
								},
								"description": "Update a club by an id"
							},
							"response": []
						},
						{
							"name": "Delete by Id",
							"request": {
								"method": "DELETE",
								"header": [],
								"url": {
									"raw": "http://localhost:8080/api/clubs/17",
									"protocol": "http",
									"host": [
										"localhost"
									],
									"port": "8080",
									"path": [
										"api",
										"clubs",
										"17"
									]
								},
								"description": "Delete a club by an id"
							},
							"response": []
						},
						{
							"name": "Delete all",
							"request": {
								"method": "DELETE",
								"header": [],
								"url": {
									"raw": "http://localhost:8080/api/clubs",
									"protocol": "http",
									"host": [
										"localhost"
									],
									"port": "8080",
									"path": [
										"api",
										"clubs"
									]
								},
								"description": "Retrieve all existing clubs"
							},
							"response": []
						}
					],
					"description": "These requests are about the clubs the athletes participating belong to."
				},
				{
					"name": "Compositions",
					"item": [
						{
							"name": "Post Composition",
							"request": {
								"method": "POST",
								"header": [
									{
										"key": "Content-Type",
										"value": "application/json",
										"type": "text"
									}
								],
								"body": {
									"mode": "raw",
									"raw": "{\n    \"composition\": \"MW\"\n}"
								},
								"url": {
									"raw": "http://localhost:8080/api/compositions",
									"protocol": "http",
									"host": [
										"localhost"
									],
									"port": "8080",
									"path": [
										"api",
										"compositions"
									]
								},
								"description": "Save a composition"
							},
							"response": []
						},
						{
							"name": "Get All",
							"request": {
								"method": "GET",
								"header": [],
								"url": {
									"raw": "http://localhost:8080/api/compositions",
									"protocol": "http",
									"host": [
										"localhost"
									],
									"port": "8080",
									"path": [
										"api",
										"compositions"
									]
								},
								"description": "Retrieve all compositions"
							},
							"response": []
						},
						{
							"name": "Get by Id",
							"request": {
								"method": "GET",
								"header": [],
								"url": {
									"raw": "http://localhost:8080/api/compositions/1",
									"protocol": "http",
									"host": [
										"localhost"
									],
									"port": "8080",
									"path": [
										"api",
										"compositions",
										"1"
									]
								},
								"description": "Retrieve a composition by id"
							},
							"response": []
						},
						{
							"name": "Get by classname",
							"request": {
								"method": "GET",
								"header": [],
								"url": {
									"raw": "http://localhost:8080/api/classes/?classname=S",
									"protocol": "http",
									"host": [
										"localhost"
									],
									"port": "8080",
									"path": [
										"api",
										"classes",
										""
									],
									"query": [
										{
											"key": "classname",
											"value": "S"
										}
									]
								},
								"description": "Retrieve a composition by name"
							},
							"response": []
						},
						{
							"name": "Update",
							"request": {
								"method": "PUT",
								"header": [
									{
										"key": "Content-Type",
										"value": "application/json",
										"type": "text"
									}
								],
								"body": {
									"mode": "raw",
									"raw": "{\n    \"composition\": \"F\"\n}"
								},
								"url": {
									"raw": "http://localhost:8080/api/compositions/1",
									"protocol": "http",
									"host": [
										"localhost"
									],
									"port": "8080",
									"path": [
										"api",
										"compositions",
										"1"
									]
								},
								"description": "Update a composition by id"
							},
							"response": []
						},
						{
							"name": "Delete by Id",
							"request": {
								"method": "DELETE",
								"header": [],
								"url": {
									"raw": "http://localhost:8080/api/compositions/1",
									"protocol": "http",
									"host": [
										"localhost"
									],
									"port": "8080",
									"path": [
										"api",
										"compositions",
										"1"
									]
								},
								"description": "Delete a composition by id"
							},
							"response": []
						},
						{
							"name": "Delete all",
							"request": {
								"method": "DELETE",
								"header": [],
								"url": {
									"raw": "http://localhost:8080/api/compositions",
									"protocol": "http",
									"host": [
										"localhost"
									],
									"port": "8080",
									"path": [
										"api",
										"compositions"
									]
								},
								"description": "Delete all compsitions"
							},
							"response": []
						}
					],
					"description": "There are certain group compositions in the various disciplines, these are defined here."
				},
				{
					"name": "Courts",
					"item": [
						{
							"name": "Post",
							"request": {
								"method": "POST",
								"header": [
									{
										"key": "Content-Type",
										"value": "application/json",
										"type": "text"
									}
								],
								"body": {
									"mode": "raw",
									"raw": "{\n    \"courtname\": \"Fläche 2\"\n}"
								},
								"url": {
									"raw": "http://localhost:8080/api/courts",
									"protocol": "http",
									"host": [
										"localhost"
									],
									"port": "8080",
									"path": [
										"api",
										"courts"
									]
								},
								"description": "Save a new court"
							},
							"response": []
						},
						{
							"name": "Get All",
							"request": {
								"method": "GET",
								"header": [],
								"url": {
									"raw": "http://localhost:8080/api/courts",
									"protocol": "http",
									"host": [
										"localhost"
									],
									"port": "8080",
									"path": [
										"api",
										"courts"
									]
								},
								"description": "Retrieve all courts"
							},
							"response": []
						},
						{
							"name": "Get by Id",
							"request": {
								"method": "GET",
								"header": [],
								"url": {
									"raw": "http://localhost:8080/api/courts/1",
									"protocol": "http",
									"host": [
										"localhost"
									],
									"port": "8080",
									"path": [
										"api",
										"courts",
										"1"
									]
								},
								"description": "Retrieve a court by id"
							},
							"response": []
						},
						{
							"name": "Get by courtname",
							"request": {
								"method": "GET",
								"header": [],
								"url": {
									"raw": "http://localhost:8080/api/courts/?courtname=1",
									"protocol": "http",
									"host": [
										"localhost"
									],
									"port": "8080",
									"path": [
										"api",
										"courts",
										""
									],
									"query": [
										{
											"key": "courtname",
											"value": "1"
										}
									]
								},
								"description": "Retrieve a court by name"
							},
							"response": []
						},
						{
							"name": "Update",
							"request": {
								"method": "PUT",
								"header": [
									{
										"key": "Content-Type",
										"value": "application/json",
										"type": "text"
									}
								],
								"body": {
									"mode": "raw",
									"raw": "{\n    \"class\": \"Junioren\"\n}"
								},
								"url": {
									"raw": "http://localhost:8080/api/courts/1",
									"protocol": "http",
									"host": [
										"localhost"
									],
									"port": "8080",
									"path": [
										"api",
										"courts",
										"1"
									]
								},
								"description": "Update a court by id"
							},
							"response": []
						},
						{
							"name": "Delete by Id",
							"request": {
								"method": "DELETE",
								"header": [],
								"url": {
									"raw": "http://localhost:8080/api/courts/1",
									"protocol": "http",
									"host": [
										"localhost"
									],
									"port": "8080",
									"path": [
										"api",
										"courts",
										"1"
									]
								},
								"description": "Delete a court by id"
							},
							"response": []
						},
						{
							"name": "Delete all",
							"request": {
								"method": "DELETE",
								"header": [],
								"url": {
									"raw": "http://localhost:8080/api/courts",
									"protocol": "http",
									"host": [
										"localhost"
									],
									"port": "8080",
									"path": [
										"api",
										"courts"
									]
								},
								"description": "Delete all courts"
							},
							"response": []
						}
					],
					"description": "There are different fighting areas per tournament. These are required to compile the schedule and distribute the referees."
				},
				{
					"name": "Disciplines",
					"item": [
						{
							"name": "Post Discipline",
							"request": {
								"method": "POST",
								"header": [
									{
										"key": "Content-Type",
										"value": "application/json",
										"type": "text"
									}
								],
								"body": {
									"mode": "raw",
									"raw": "{\n    \"discipline\": \"Poomsae Pair\"\n}"
								},
								"url": {
									"raw": "http://localhost:8080/api/disciplines",
									"protocol": "http",
									"host": [
										"localhost"
									],
									"port": "8080",
									"path": [
										"api",
										"disciplines"
									]
								},
								"description": "Save a new discipline"
							},
							"response": []
						},
						{
							"name": "Get All",
							"request": {
								"method": "GET",
								"header": [],
								"url": {
									"raw": "http://localhost:8080/api/disciplines",
									"protocol": "http",
									"host": [
										"localhost"
									],
									"port": "8080",
									"path": [
										"api",
										"disciplines"
									]
								},
								"description": "Retrieve all disciplines"
							},
							"response": []
						},
						{
							"name": "Get by Id",
							"request": {
								"method": "GET",
								"header": [],
								"url": {
									"raw": "http://localhost:8080/api/disciplines/1",
									"protocol": "http",
									"host": [
										"localhost"
									],
									"port": "8080",
									"path": [
										"api",
										"disciplines",
										"1"
									]
								},
								"description": "Retrieve a discipline by Id"
							},
							"response": []
						},
						{
							"name": "Get by name",
							"request": {
								"method": "GET",
								"header": [],
								"url": {
									"raw": "http://localhost:8080/api/disciplines/?discipline=E",
									"protocol": "http",
									"host": [
										"localhost"
									],
									"port": "8080",
									"path": [
										"api",
										"disciplines",
										""
									],
									"query": [
										{
											"key": "discipline",
											"value": "E"
										}
									]
								},
								"description": "Retrieve a discipline by name"
							},
							"response": []
						},
						{
							"name": "Update Discipline",
							"request": {
								"method": "PUT",
								"header": [
									{
										"key": "Content-Type",
										"value": "application/json",
										"type": "text"
									}
								],
								"body": {
									"mode": "raw",
									"raw": "{\n    \"discipline\": \"Freestyle Individual\"\n}"
								},
								"url": {
									"raw": "http://localhost:8080/api/disciplines/1",
									"protocol": "http",
									"host": [
										"localhost"
									],
									"port": "8080",
									"path": [
										"api",
										"disciplines",
										"1"
									]
								},
								"description": "Update a discipline by id"
							},
							"response": []
						},
						{
							"name": "Delete by Id",
							"request": {
								"method": "DELETE",
								"header": [],
								"url": {
									"raw": "http://localhost:8080/api/disciplines/1",
									"protocol": "http",
									"host": [
										"localhost"
									],
									"port": "8080",
									"path": [
										"api",
										"disciplines",
										"1"
									]
								},
								"description": "Delete a discipline by id"
							},
							"response": []
						},
						{
							"name": "Delete all",
							"request": {
								"method": "DELETE",
								"header": [],
								"url": {
									"raw": "http://localhost:8080/api/disciplines",
									"protocol": "http",
									"host": [
										"localhost"
									],
									"port": "8080",
									"path": [
										"api",
										"disciplines"
									]
								},
								"description": "Delete all disciplines"
							},
							"response": []
						}
					],
					"description": "This Table is all about the performance classes the categories consist of. These disciplines describe the type of competition (Poomsae / Freestyle, Individual / Team / Pair)"
				},
				{
					"name": "Registrations",
					"item": [
						{
							"name": "Post registration",
							"request": {
								"method": "POST",
								"header": [
									{
										"key": "Content-Type",
										"value": "application/json",
										"type": "text"
									}
								],
								"body": {
									"mode": "raw",
									"raw": "{\n    \"status\": 0,\n    \"categoryId\": 1\n}"
								},
								"url": {
									"raw": "http://localhost:8080/api/registrations",
									"protocol": "http",
									"host": [
										"localhost"
									],
									"port": "8080",
									"path": [
										"api",
										"registrations"
									]
								},
								"description": "Add a new Registration, belonging to a category"
							},
							"response": []
						},
						{
							"name": "Add user to reg",
							"request": {
								"method": "POST",
								"header": [
									{
										"key": "Content-Type",
										"value": "application/json",
										"type": "text"
									}
								],
								"body": {
									"mode": "raw",
									"raw": "{\n    \"athleteId\": 1,\n    \"registrationId\": 1\n}"
								},
								"url": {
									"raw": "http://localhost:8080/api/registrations/adduser",
									"protocol": "http",
									"host": [
										"localhost"
									],
									"port": "8080",
									"path": [
										"api",
										"registrations",
										"adduser"
									]
								},
								"description": "Add an Athlete to an already existing Registration"
							},
							"response": []
						},
						{
							"name": "Get All",
							"request": {
								"method": "GET",
								"header": [],
								"url": {
									"raw": "http://localhost:8080/api/registrations",
									"protocol": "http",
									"host": [
										"localhost"
									],
									"port": "8080",
									"path": [
										"api",
										"registrations"
									]
								},
								"description": "Retrieve all Registrations"
							},
							"response": []
						},
						{
							"name": "Get by id",
							"request": {
								"method": "GET",
								"header": [],
								"url": {
									"raw": "http://localhost:8080/api/registrations/1",
									"protocol": "http",
									"host": [
										"localhost"
									],
									"port": "8080",
									"path": [
										"api",
										"registrations",
										"1"
									]
								},
								"description": "Retrieve registration with a give id"
							},
							"response": []
						},
						{
							"name": "Get Active Registration by Category",
							"request": {
								"method": "GET",
								"header": [],
								"url": {
									"raw": "http://localhost:8080/api/registrations/active/5",
									"protocol": "http",
									"host": [
										"localhost"
									],
									"port": "8080",
									"path": [
										"api",
										"registrations",
										"active",
										"5"
									]
								},
								"description": "Retrieve active (status = 1 or 2) registration belonging to a category"
							},
							"response": []
						},
						{
							"name": "Get Registrations by Category",
							"request": {
								"method": "GET",
								"header": [],
								"url": {
									"raw": "http://localhost:8080/api/registrations/categories/5",
									"protocol": "http",
									"host": [
										"localhost"
									],
									"port": "8080",
									"path": [
										"api",
										"registrations",
										"categories",
										"5"
									]
								},
								"description": "Retrieve registration belonging to a category"
							},
							"response": []
						},
						{
							"name": "Update registration",
							"request": {
								"method": "PUT",
								"header": [
									{
										"key": "Content-Type",
										"value": "application/json",
										"type": "text"
									}
								],
								"body": {
									"mode": "raw",
									"raw": "{\n    \"status\": 0,\n    \"categoryId\": 3\n}"
								},
								"url": {
									"raw": "http://localhost:8080/api/registrations/1",
									"protocol": "http",
									"host": [
										"localhost"
									],
									"port": "8080",
									"path": [
										"api",
										"registrations",
										"1"
									]
								},
								"description": "Update registration"
							},
							"response": []
						},
						{
							"name": "Delete by Id",
							"request": {
								"method": "DELETE",
								"header": [],
								"url": {
									"raw": "http://localhost:8080/api/registrations/1",
									"protocol": "http",
									"host": [
										"localhost"
									],
									"port": "8080",
									"path": [
										"api",
										"registrations",
										"1"
									]
								},
								"description": "Delete Registration by Id"
							},
							"response": []
						},
						{
							"name": "Delete all",
							"request": {
								"method": "DELETE",
								"header": [],
								"url": {
									"raw": "http://localhost:8080/api/registrations",
									"protocol": "http",
									"host": [
										"localhost"
									],
									"port": "8080",
									"path": [
										"api",
										"registrations"
									]
								},
								"description": "Delete all Registrations"
							},
							"response": []
						}
					],
					"description": "This Table is about the Performances the Athletes are competing at"
				},
				{
					"name": "Schedules",
					"item": [
						{
							"name": "Post schedule",
							"request": {
								"method": "POST",
								"header": [
									{
										"key": "Content-Type",
										"value": "application/json",
										"type": "text"
									}
								],
								"body": {
									"mode": "raw",
									"raw": "{\n   \"time\": \"2020-02-25 09:00:00\",\n   \"categoryId\": 1,\n   \"courtId\": 1,\n   \"status\": 0 \n}"
								},
								"url": {
									"raw": "http://localhost:8080/api/schedules",
									"protocol": "http",
									"host": [
										"localhost"
									],
									"port": "8080",
									"path": [
										"api",
										"schedules"
									]
								}
							},
							"response": []
						},
						{
							"name": "Get All",
							"request": {
								"method": "GET",
								"header": [],
								"url": {
									"raw": "http://localhost:8080/api/schedules",
									"protocol": "http",
									"host": [
										"localhost"
									],
									"port": "8080",
									"path": [
										"api",
										"schedules"
									]
								}
							},
							"response": []
						},
						{
							"name": "Get by id",
							"request": {
								"method": "GET",
								"header": [],
								"url": {
									"raw": "http://localhost:8080/api/schedules/1",
									"protocol": "http",
									"host": [
										"localhost"
									],
									"port": "8080",
									"path": [
										"api",
										"schedules",
										"1"
									]
								}
							},
							"response": []
						},
						{
							"name": "Get Active Schedule",
							"request": {
								"method": "GET",
								"header": [],
								"url": {
									"raw": "http://localhost:8080/api/schedules/active/1",
									"protocol": "http",
									"host": [
										"localhost"
									],
									"port": "8080",
									"path": [
										"api",
										"schedules",
										"active",
										"1"
									]
								}
							},
							"response": []
						},
						{
							"name": "Get by Court",
							"request": {
								"method": "GET",
								"header": [],
								"url": {
									"raw": "http://localhost:8080/api/schedules/1",
									"protocol": "http",
									"host": [
										"localhost"
									],
									"port": "8080",
									"path": [
										"api",
										"schedules",
										"1"
									]
								}
							},
							"response": []
						},
						{
							"name": "Update schedule",
							"request": {
								"method": "PUT",
								"header": [
									{
										"key": "Content-Type",
										"value": "application/json",
										"type": "text"
									}
								],
								"body": {
									"mode": "raw",
									"raw": "{\n    \"time\": \"2020-02-25 09:00:00\",\n    \"categoryId\": 1,\n    \"courtId\": 1,\n    \"status\": 1 \n}"
								},
								"url": {
									"raw": "http://localhost:8080/api/schedules/1",
									"protocol": "http",
									"host": [
										"localhost"
									],
									"port": "8080",
									"path": [
										"api",
										"schedules",
										"1"
									]
								}
							},
							"response": []
						},
						{
							"name": "Delete by Id",
							"request": {
								"method": "DELETE",
								"header": [],
								"url": {
									"raw": "http://localhost:8080/api/schedules/1",
									"protocol": "http",
									"host": [
										"localhost"
									],
									"port": "8080",
									"path": [
										"api",
										"schedules",
										"1"
									]
								}
							},
							"response": []
						},
						{
							"name": "Delete all",
							"request": {
								"method": "DELETE",
								"header": [],
								"url": {
									"raw": "http://localhost:8080/api/schedules",
									"protocol": "http",
									"host": [
										"localhost"
									],
									"port": "8080",
									"path": [
										"api",
										"schedules"
									]
								}
							},
							"response": []
						}
					]
				},
				{
					"name": "Scores",
					"item": [
						{
							"name": "Post score",
							"request": {
								"method": "POST",
								"header": [
									{
										"key": "Content-Type",
										"value": "application/json",
										"type": "text"
									}
								],
								"body": {
									"mode": "raw",
									"raw": "{\n   \"registrationId\":1,\n   \"courtId\": 1,\n   \"roundId\": 1,\n   \"refereeId\": 1,\n   \"technique\": 2.4,\n   \"presentation\": 3.1\n}"
								},
								"url": {
									"raw": "http://localhost:8080/api/scores",
									"protocol": "http",
									"host": [
										"localhost"
									],
									"port": "8080",
									"path": [
										"api",
										"scores"
									]
								},
								"description": "Post a new Score, note that the foreign key of the tables Registrations, Court and Referee must already exist in order to succeed.\nThe technique-points and the presentation-points are the points given by the Referee."
							},
							"response": []
						},
						{
							"name": "Get All",
							"request": {
								"method": "GET",
								"header": [],
								"url": {
									"raw": "http://localhost:8080/api/scores",
									"protocol": "http",
									"host": [
										"localhost"
									],
									"port": "8080",
									"path": [
										"api",
										"scores"
									]
								}
							},
							"response": []
						},
						{
							"name": "Get by id",
							"request": {
								"method": "GET",
								"header": [],
								"url": {
									"raw": "http://localhost:8080/api/scores/1",
									"protocol": "http",
									"host": [
										"localhost"
									],
									"port": "8080",
									"path": [
										"api",
										"scores",
										"1"
									]
								}
							},
							"response": []
						},
						{
							"name": "Get All by regid + roundId",
							"protocolProfileBehavior": {
								"disableBodyPruning": true
							},
							"request": {
								"method": "GET",
								"header": [],
								"body": {
									"mode": "raw",
									"raw": "{\n    \"registrationId\": 3,\n    \"roundId\": 1\n}",
									"options": {
										"raw": {
											"language": "json"
										}
									}
								},
								"url": {
									"raw": "http://localhost:8080/api/scores/getAll",
									"protocol": "http",
									"host": [
										"localhost"
									],
									"port": "8080",
									"path": [
										"api",
										"scores",
										"getAll"
									]
								}
							},
							"response": []
						},
						{
							"name": "Update score",
							"request": {
								"method": "PUT",
								"header": [
									{
										"key": "Content-Type",
										"value": "application/json",
										"type": "text"
									}
								],
								"body": {
									"mode": "raw",
									"raw": "{\n   \"registrationId\":1,\n   \"courtId\": 1,\n   \"roundId\": 1,\n   \"refereeId\": 1,\n   \"technique\": 2.4,\n   \"presentation\": 3.1\n   }"
								},
								"url": {
									"raw": "http://localhost:8080/api/scores/1",
									"protocol": "http",
									"host": [
										"localhost"
									],
									"port": "8080",
									"path": [
										"api",
										"scores",
										"1"
									]
								}
							},
							"response": []
						},
						{
							"name": "Delete by Id",
							"request": {
								"method": "DELETE",
								"header": [],
								"url": {
									"raw": "http://localhost:8080/api/scores/1",
									"protocol": "http",
									"host": [
										"localhost"
									],
									"port": "8080",
									"path": [
										"api",
										"scores",
										"1"
									]
								}
							},
							"response": []
						},
						{
							"name": "Delete all",
							"request": {
								"method": "DELETE",
								"header": [],
								"url": {
									"raw": "http://localhost:8080/api/scores",
									"protocol": "http",
									"host": [
										"localhost"
									],
									"port": "8080",
									"path": [
										"api",
										"scores"
									]
								}
							},
							"response": []
						}
					]
				}
			],
			"description": "These API Requests are for testing the pure functinality and consistency of the database and the Backend"
		},
		{
			"name": "Data Driven Testing",
			"item": [
				{
					"name": "Post Clubs",
					"event": [
						{
							"listen": "test",
							"script": {
								"exec": [
									""
								],
								"type": "text/javascript"
							}
						}
					],
					"request": {
						"method": "POST",
						"header": [
							{
								"key": "Content-Type",
								"value": "application/json",
								"type": "text"
							}
						],
						"body": {
							"mode": "raw",
							"raw": "{\n    \"clubname\": \"{{clubname}}\"\n}"
						},
						"url": {
							"raw": "http://localhost:8080/api/clubs",
							"protocol": "http",
							"host": [
								"localhost"
							],
							"port": "8080",
							"path": [
								"api",
								"clubs"
							]
						}
					},
					"response": []
				},
				{
					"name": "Post All Disciplines",
					"request": {
						"method": "POST",
						"header": [
							{
								"key": "Content-Type",
								"value": "application/json",
								"type": "text"
							}
						],
						"body": {
							"mode": "raw",
							"raw": "{\n    \"discipline\": \"{{disciplinename}}\"\n}"
						},
						"url": {
							"raw": "http://localhost:8080/api/disciplines",
							"protocol": "http",
							"host": [
								"localhost"
							],
							"port": "8080",
							"path": [
								"api",
								"disciplines"
							]
						}
					},
					"response": []
				},
				{
					"name": "Post All Compositions",
					"request": {
						"method": "POST",
						"header": [
							{
								"key": "Content-Type",
								"value": "application/json",
								"type": "text"
							}
						],
						"body": {
							"mode": "raw",
							"raw": "{\n    \"composition\": \"{{compositionname}}\"\n}"
						},
						"url": {
							"raw": "http://localhost:8080/api/compositions",
							"protocol": "http",
							"host": [
								"localhost"
							],
							"port": "8080",
							"path": [
								"api",
								"compositions"
							]
						}
					},
					"response": []
				},
				{
					"name": "Post Classes",
					"request": {
						"method": "POST",
						"header": [
							{
								"key": "Content-Type",
								"value": "application/json",
								"type": "text"
							}
						],
						"body": {
							"mode": "raw",
							"raw": "{\n    \"classname\": \"{{classname}}\"\n}"
						},
						"url": {
							"raw": "http://localhost:8080/api/classes",
							"protocol": "http",
							"host": [
								"localhost"
							],
							"port": "8080",
							"path": [
								"api",
								"classes"
							]
						}
					},
					"response": []
				},
				{
					"name": "Post All Categories",
					"request": {
						"method": "POST",
						"header": [
							{
								"key": "Content-Type",
								"value": "application/json",
								"type": "text"
							}
						],
						"body": {
							"mode": "raw",
							"raw": "{\n    \"category\": \"{{category}}\",\n    \"disciplineId\": {{disciplineId}},\n    \"classId\": {{classId}},\n    \"compositionId\": {{compositionId}}\n}"
						},
						"url": {
							"raw": "http://localhost:8080/api/categories",
							"protocol": "http",
							"host": [
								"localhost"
							],
							"port": "8080",
							"path": [
								"api",
								"categories"
							]
						}
					},
					"response": []
				},
				{
					"name": "Post Courts Copy",
					"request": {
						"method": "POST",
						"header": [
							{
								"key": "Content-Type",
								"value": "application/json",
								"type": "text"
							}
						],
						"body": {
							"mode": "raw",
							"raw": "{\n    \"courtname\": \"{{courtname}}\"\n}"
						},
						"url": {
							"raw": "http://localhost:8080/api/courts",
							"protocol": "http",
							"host": [
								"localhost"
							],
							"port": "8080",
							"path": [
								"api",
								"courts"
							]
						}
					},
					"response": []
				},
				{
					"name": "Post Athlete",
					"request": {
						"method": "POST",
						"header": [
							{
								"key": "Content-Type",
								"value": "application/json",
								"type": "text"
							}
						],
						"body": {
							"mode": "raw",
							"raw": "{\n    \"name\": \"{{name}}\",\n    \"dateOfBirth\": \"{{dateOfBirth}}\",\n    \"graduation\": \"{{graduation}}\",\n    \"clubId\": \"{{clubId}}\"\n}"
						},
						"url": {
							"raw": "http://localhost:8080/api/athletes",
							"protocol": "http",
							"host": [
								"localhost"
							],
							"port": "8080",
							"path": [
								"api",
								"athletes"
							]
						}
					},
					"response": []
				},
				{
					"name": "Post registration Copy",
					"request": {
						"method": "POST",
						"header": [
							{
								"key": "Content-Type",
								"value": "application/json",
								"type": "text"
							}
						],
						"body": {
							"mode": "raw",
							"raw": "{\n    \"status\": 0,\n    \"categoryId\": 1\n}"
						},
						"url": {
							"raw": "http://localhost:8080/api/registrations",
							"protocol": "http",
							"host": [
								"localhost"
							],
							"port": "8080",
							"path": [
								"api",
								"registrations"
							]
						}
					},
					"response": []
				},
				{
					"name": "Post add user to reg Copy",
					"request": {
						"method": "POST",
						"header": [
							{
								"key": "Content-Type",
								"value": "application/json",
								"type": "text"
							}
						],
						"body": {
							"mode": "raw",
							"raw": "{\n    \"athleteId\": 3,\n    \"registrationId\": 1\n}"
						},
						"url": {
							"raw": "http://localhost:8080/api/registrations/adduser",
							"protocol": "http",
							"host": [
								"localhost"
							],
							"port": "8080",
							"path": [
								"api",
								"registrations",
								"adduser"
							]
						}
					},
					"response": []
				}
			]
		}
	],
	"event": [
		{
			"listen": "prerequest",
			"script": {
				"type": "text/javascript",
				"exec": [
					""
				]
			}
		},
		{
			"listen": "test",
			"script": {
				"type": "text/javascript",
				"exec": [
					""
				]
			}
		}
	],
	"variable": [
		{
			"key": "clubname",
			"value": "TKD Nenzing"
		},
		{
			"key": "disciplinename",
			"value": "Schüler"
		},
		{
			"key": "compositionname",
			"value": "M"
		},
		{
			"key": "category",
			"value": "Poomsae Individual"
		},
		{
			"key": "disciplineId",
			"value": "1"
		},
		{
			"key": "classId",
			"value": "1"
		},
		{
			"key": "compositionId",
			"value": "1"
		},
		{
			"key": "classname",
			"value": "LK1"
		},
		{
			"key": "courtname",
			"value": "Fläche 1"
		},
		{
			"key": "name",
			"value": "Leona Köck"
		},
		{
			"key": "dateOfBirth",
			"value": "25.02.1999"
		},
		{
			"key": "graduation",
			"value": "1. Dan"
		},
		{
			"key": "clubId",
			"value": "1"
		},
		{
			"key": "time",
			"value": "2020-08-25T04:00:00.000Z"
		},
		{
			"key": "refCategoryId",
			"value": "1"
		},
		{
			"key": "refCourtId",
			"value": "1"
		},
		{
			"key": "scheduleStatus",
			"value": "0"
		}
	]
}