%!PS-Adobe-3.0 EPSF-3.0
%%Creator: cairo 1.15.12 (http://cairographics.org)
%%CreationDate: Mon Aug  9 10:36:48 2021
%%Pages: 1
%%DocumentData: Clean7Bit
%%LanguageLevel: 2
%%BoundingBox: 0 0 249 249
%%EndComments
%%BeginProlog
50 dict begin
/q { gsave } bind def
/Q { grestore } bind def
/cm { 6 array astore concat } bind def
/w { setlinewidth } bind def
/J { setlinecap } bind def
/j { setlinejoin } bind def
/M { setmiterlimit } bind def
/d { setdash } bind def
/m { moveto } bind def
/l { lineto } bind def
/c { curveto } bind def
/h { closepath } bind def
/re { exch dup neg 3 1 roll 5 3 roll moveto 0 rlineto
      0 exch rlineto 0 rlineto closepath } bind def
/S { stroke } bind def
/f { fill } bind def
/f* { eofill } bind def
/n { newpath } bind def
/W { clip } bind def
/W* { eoclip } bind def
/BT { } bind def
/ET { } bind def
/BDC { mark 3 1 roll /BDC pdfmark } bind def
/EMC { mark /EMC pdfmark } bind def
/cairo_store_point { /cairo_point_y exch def /cairo_point_x exch def } def
/Tj { show currentpoint cairo_store_point } bind def
/TJ {
  {
    dup
    type /stringtype eq
    { show } { -0.001 mul 0 cairo_font_matrix dtransform rmoveto } ifelse
  } forall
  currentpoint cairo_store_point
} bind def
/cairo_selectfont { cairo_font_matrix aload pop pop pop 0 0 6 array astore
    cairo_font exch selectfont cairo_point_x cairo_point_y moveto } bind def
/Tf { pop /cairo_font exch def /cairo_font_matrix where
      { pop cairo_selectfont } if } bind def
/Td { matrix translate cairo_font_matrix matrix concatmatrix dup
      /cairo_font_matrix exch def dup 4 get exch 5 get cairo_store_point
      /cairo_font where { pop cairo_selectfont } if } bind def
/Tm { 2 copy 8 2 roll 6 array astore /cairo_font_matrix exch def
      cairo_store_point /cairo_font where { pop cairo_selectfont } if } bind def
/g { setgray } bind def
/rg { setrgbcolor } bind def
/d1 { setcachedevice } bind def
/cairo_data_source {
  CairoDataIndex CairoData length lt
    { CairoData CairoDataIndex get /CairoDataIndex CairoDataIndex 1 add def }
    { () } ifelse
} def
/cairo_flush_ascii85_file { cairo_ascii85_file status { cairo_ascii85_file flushfile } if } def
/cairo_image { image cairo_flush_ascii85_file } def
/cairo_imagemask { imagemask cairo_flush_ascii85_file } def
%%EndProlog
%%BeginSetup
%%EndSetup
%%Page: 1 1
%%BeginPageSetup
%%PageBoundingBox: 0 0 249 249
%%EndPageSetup
q 0 0 249 249 rectclip
1 0 0 -1 0 249 cm q
0.87451 1 0 rg
0 0 248.516 248.516 re f
0.203922 0.203922 0.2 rg
131.086 230.891 m 128.984 230.434 127.383 229.484 125.734 227.723 c 123.758
 225.609 123.551 225.113 123.297 221.895 c 123.109 219.473 118.141 138.391
 118 135.43 c 117.945 134.285 l 110.867 128.719 l 106.973 125.66 99.195 
119.539 93.586 115.125 c 87.977 110.707 83.004 106.797 82.535 106.434 c 
81.688 105.773 l 77.77 112.125 l 75.613 115.617 73.887 118.516 73.938 118.566
 c 73.988 118.613 76.617 120.078 79.785 121.82 c 86.879 125.719 86.922 125.746
 88.414 127.062 c 90.238 128.676 91.621 130.586 92.059 132.086 c 93.262 
136.227 90.355 140.566 85.996 141.145 c 85.176 141.25 84.199 141.145 82.734
 140.789 c 80.691 140.297 79.039 139.738 60.586 133.324 c 51.707 130.238
 l 50.586 129.031 l 48.836 127.145 48.137 125.492 48.148 123.281 c 48.156
 122.055 48.309 121.094 48.613 120.367 c 48.98 119.484 57.633 102.824 62.637
 93.375 c 63.266 92.184 65.523 87.875 67.66 83.793 c 69.797 79.711 71.914
 75.934 72.371 75.395 c 73.465 74.098 82.895 61.301 83.711 60.004 c 84.059
 59.449 88.395 54.203 93.348 48.352 c 106.527 32.762 107.41 31.695 111.73
 26.129 c 113.898 23.336 116.098 20.711 116.613 20.305 c 118.254 19.004 
119.66 18.504 121.668 18.504 c 123.852 18.504 125.363 19.109 126.906 20.605
 c 128.578 22.223 129.176 23.629 129.289 26.172 c 129.379 28.332 l 125.258
 35.414 l 121.352 42.129 117.727 48.504 110.273 61.785 c 107.586 66.578 
107.047 67.691 107.309 67.934 c 107.484 68.094 109.461 69.723 111.707 71.547
 c 113.949 73.371 116.598 75.523 117.586 76.336 c 132.766 88.734 139.062
 93.801 139.324 93.824 c 139.5 93.84 142.809 90.391 146.676 86.164 c 150.543
 81.934 158.242 73.508 163.785 67.441 c 169.328 61.375 176.238 53.82 179.145
 50.648 c 182.051 47.477 188.34 40.605 193.121 35.379 c 198.926 29.031 202.113
 25.727 202.719 25.422 c 203.461 25.055 204.172 24.973 206.625 24.973 c 
209.461 24.973 209.707 25.012 211.062 25.68 c 212.977 26.617 214.637 28.32
 215.578 30.316 c 216.297 31.832 216.348 32.098 216.34 34.574 c 216.34 36.07
 216.207 37.59 216.031 38.082 c 215.758 38.863 204.5 54.027 162.887 109.656
 c 155.594 119.402 149.289 127.938 148.875 128.617 c 148.125 129.852 l 146.645
 155.652 l 145.832 169.844 144.688 189.66 144.098 199.691 c 143.512 209.727
 143.031 218.832 143.027 219.926 c 143.023 222.598 142.609 225.176 142.004
 226.262 c 141.375 227.391 138.922 229.391 137.191 230.184 c 136.055 230.703
 133.613 231.289 132.828 231.234 c 132.695 231.223 131.91 231.07 131.086
 230.891 c h
51.375 77.055 m 47.543 76.191 44.23 74.629 41.418 72.359 c 34.77 66.988
 31.438 59.312 32.184 51.074 c 32.699 45.387 35.008 40.469 39.09 36.359 
c 41.387 34.051 43.035 32.828 45.5 31.598 c 53.109 27.812 62.328 28.395 
69.406 33.105 c 75.293 37.027 79.449 43.906 80.078 50.773 c 80.328 53.488
 80.062 57.172 79.445 59.531 c 77.809 65.797 72.715 72.047 66.883 74.945
 c 63.293 76.73 61.172 77.227 56.746 77.32 c 54.008 77.379 52.465 77.305
 51.375 77.055 c h
51.375 77.055 m f
Q Q
showpage
%%Trailer
end
%%EOF
